{
	"info": {
		"_postman_id": "4f956e0a-310f-4c01-adb8-91066003dad5",
		"name": "Practitioner",
		"schema": "https://schema.getpostman.com/json/collection/v2.0.0/collection.json"
	},
	"item": [
		{
			"name": "Backend",
			"item": [
				{
					"name": "simple-crud-usuarios",
					"item": [
						{
							"name": "Add",
							"request": {
								"method": "POST",
								"header": [],
								"body": {
									"mode": "raw",
									"raw": "{\r\n    \"nombres\": \"Jesus\",\r\n    \"apellidos\": \"Rios A\",\r\n    \"edad\": 27,\r\n    \"productos\": [\r\n        {\r\n            \"nombre\": \"Televisor\"\r\n        },\r\n        {\r\n            \"nombre\": \"Cocina\"\r\n        }\r\n    ]\r\n}",
									"options": {
										"raw": {
											"language": "json"
										}
									}
								},
								"url": "http://localhost:9998/v1/usuarios"
							},
							"response": []
						},
						{
							"name": "List",
							"request": {
								"method": "GET",
								"header": [],
								"url": "http://localhost:9998/v1/usuarios"
							},
							"response": []
						},
						{
							"name": "Update",
							"request": {
								"method": "PUT",
								"header": [],
								"body": {
									"mode": "raw",
									"raw": "{\r\n    \"nombres\": \"Jesus Antonio\",\r\n    \"apellidos\": \"Rios Avila\",\r\n    \"edad\": 28\r\n}",
									"options": {
										"raw": {
											"language": "json"
										}
									}
								},
								"url": "http://localhost:9998/v1/usuarios/1"
							},
							"response": []
						},
						{
							"name": "Get",
							"request": {
								"method": "GET",
								"header": [],
								"url": "http://localhost:9998/v1/usuarios/1"
							},
							"response": []
						},
						{
							"name": "Delete",
							"request": {
								"method": "DELETE",
								"header": [],
								"url": "http://localhost:9998/v1/usuarios/2"
							},
							"response": []
						},
						{
							"name": "Get subrecurso",
							"request": {
								"method": "GET",
								"header": [],
								"url": "http://localhost:9998/v1/usuarios/3/productos"
							},
							"response": []
						}
					],
					"event": [
						{
							"listen": "prerequest",
							"script": {
								"type": "text/javascript",
								"exec": [
									""
								]
							}
						},
						{
							"listen": "test",
							"script": {
								"type": "text/javascript",
								"exec": [
									""
								]
							}
						}
					]
				},
				{
					"name": "crud-mongodb",
					"item": [
						{
							"name": "Add",
							"request": {
								"method": "POST",
								"header": [],
								"body": {
									"mode": "raw",
									"raw": "{\r\n    \"precio\": 100,\r\n    \"descripcion\": \"Polo BBVA\"\r\n}",
									"options": {
										"raw": {
											"language": "json"
										}
									}
								},
								"url": "http://localhost:8081/v2/productos"
							},
							"response": []
						},
						{
							"name": "List",
							"request": {
								"method": "GET",
								"header": [],
								"url": "http://localhost:8081/v2/productos"
							},
							"response": []
						},
						{
							"name": "Update",
							"request": {
								"method": "PUT",
								"header": [],
								"body": {
									"mode": "raw",
									"raw": "{\r\n    \"id\": \"61392d4ea27c4d153387c109\",\r\n    \"precio\": 25,\r\n    \"descripcion\": \"Polo BBVA Azul\"\r\n}",
									"options": {
										"raw": {
											"language": "json"
										}
									}
								},
								"url": "http://localhost:8081/v2/productos"
							},
							"response": []
						},
						{
							"name": "Get",
							"request": {
								"method": "GET",
								"header": [],
								"url": "http://localhost:8081/v2/productos/61392d4ea27c4d153387c109"
							},
							"response": []
						},
						{
							"name": "Delete",
							"request": {
								"method": "DELETE",
								"header": [],
								"url": "http://localhost:8081/v2/productos/61392d4ea27c4d153387c109"
							},
							"response": []
						}
					]
				}
			]
		}
	]
}